{
	"info": {
		"_postman_id": "ca161ca9-cdc6-41cd-9c35-da44f6ed586b",
		"name": "Car Park",
		"schema": "https://schema.getpostman.com/json/collection/v2.1.0/collection.json",
		"_exporter_id": "457888"
	},
	"item": [
		{
			"name": "HealthCheck",
			"request": {
				"method": "GET",
				"header": [],
				"url": {
					"raw": "http://localhost:8000",
					"protocol": "http",
					"host": [
						"localhost"
					],
					"port": "8000"
				}
			},
			"response": []
		},
		{
			"name": "[1] Create Parking lot",
			"request": {
				"method": "POST",
				"header": [],
				"body": {
					"mode": "raw",
					"raw": "{\n    \"slotFloor\": \"f1\",\n    \"total\": 10,\n    \"carSize\": 1\n}",
					"options": {
						"raw": {
							"language": "json"
						}
					}
				},
				"url": {
					"raw": "http://localhost:8000/car_park/v1/slots/lists",
					"protocol": "http",
					"host": [
						"localhost"
					],
					"port": "8000",
					"path": [
						"car_park",
						"v1",
						"slots",
						"lists"
					]
				}
			},
			"response": []
		},
		{
			"name": "[2] Park The Car",
			"request": {
				"method": "PATCH",
				"header": [],
				"body": {
					"mode": "raw",
					"raw": "{\n    \"slotID\": 700,\n    \"slotPlate\": \"991\",\n    \"slotStatus\": 0\n}",
					"options": {
						"raw": {
							"language": "json"
						}
					}
				},
				"url": {
					"raw": "http://localhost:8000/car_park/v1/slots/park",
					"protocol": "http",
					"host": [
						"localhost"
					],
					"port": "8000",
					"path": [
						"car_park",
						"v1",
						"slots",
						"park"
					]
				}
			},
			"response": []
		},
		{
			"name": "[3] Leave Car",
			"request": {
				"method": "PATCH",
				"header": [],
				"body": {
					"mode": "raw",
					"raw": "{\n    \"slotID\": 629,\n    \"slotStatus\": 1\n}",
					"options": {
						"raw": {
							"language": "json"
						}
					}
				},
				"url": {
					"raw": "http://localhost:8000/car_park/v1/slots/park",
					"protocol": "http",
					"host": [
						"localhost"
					],
					"port": "8000",
					"path": [
						"car_park",
						"v1",
						"slots",
						"park"
					]
				}
			},
			"response": []
		},
		{
			"name": "[4] Get Status Parking lot",
			"request": {
				"method": "GET",
				"header": [],
				"url": {
					"raw": "http://localhost:8000/car_park/v1/slots/lists",
					"protocol": "http",
					"host": [
						"localhost"
					],
					"port": "8000",
					"path": [
						"car_park",
						"v1",
						"slots",
						"lists"
					]
				}
			},
			"response": []
		},
		{
			"name": "[5] Get registration plate number list by car size",
			"request": {
				"method": "GET",
				"header": [],
				"url": {
					"raw": "http://localhost:8000/car_park/v1/slots/lists/plate/3/1",
					"protocol": "http",
					"host": [
						"localhost"
					],
					"port": "8000",
					"path": [
						"car_park",
						"v1",
						"slots",
						"lists",
						"plate",
						"3",
						"1"
					]
				}
			},
			"response": []
		},
		{
			"name": "[6] Allocate parking by car size",
			"request": {
				"method": "GET",
				"header": [],
				"url": {
					"raw": "http://localhost:8000/car_park/v1/slots/allocated/3",
					"protocol": "http",
					"host": [
						"localhost"
					],
					"port": "8000",
					"path": [
						"car_park",
						"v1",
						"slots",
						"allocated",
						"3"
					]
				}
			},
			"response": []
		},
		{
			"name": "Get status by slot",
			"request": {
				"method": "GET",
				"header": [],
				"url": {
					"raw": "http://localhost:8000/car_park/v1/slots/park/700",
					"protocol": "http",
					"host": [
						"localhost"
					],
					"port": "8000",
					"path": [
						"car_park",
						"v1",
						"slots",
						"park",
						"700"
					]
				}
			},
			"response": []
		}
	]
}